{
  "type": "service_account",
  "project_id": "iconic-being-134220",
  "private_key_id": "9ca309a391c8de24b0f09f60631e631caf0b8d37",
  "private_key": "-----BEGIN PRIVATE KEY-----\nMIIEvAIBADANBgkqhkiG9w0BAQEFAASCBKYwggSiAgEAAoIBAQDCjZ5ojJaSrsJC\nSxl4lR+mYq30+QM6xZr+Dvu/UpNb1/MVj2FCoa7YDx8TQ27WtO6jS/Zufk9VXrXn\n9NkhJHMnd+4F4+CKUxZVrJAptpDjcNInqTO2T7LkgEYZ+f0VmShkAX2MmWtthS9o\nPuhY9AW0Cmyrt3GXUuIUzfhoFIxG2G0ScXm3/aiKyI8eQy5rXw9pncTZC6L5lMGJ\nF8H/vR0CobWFh/+zM3XVvuoQpYE+znw9JNd2DDvDv9Gg6Gwu+0XBYcnKuLoaiYAD\nZnsXGLNAOL4NuI4fg0bLHI9zEzdBDRik1ft/jc9rk4UV+9htcxhgJTm1r2OT1iVe\n/fc9Zx1JAgMBAAECggEAbFSG/BgsT4jXyiofCLGgaflQe7OcRMF7SDP3odTNELry\nM/MeaQe2X8ArwYIu2YbtyiemFGhorFSMXZhMvtOY+0UgWE9G3D7flNz9ePybOMm9\nezAQB1fheLKkVhqI/dnGT8k0q3FSDC249AbzQXS/KD0VvZfrvCL+mC8IPowSf+9R\nGY+mls0oxdP6tPoC5Vat1bkzz/F/frEqqZtkE6HKxUC/iPe8RM2ASKa8rKSqqEwt\ng/PSgG91Ym4pilpdf5ipH7pIeZpEVoQ3g9yLOR97l9yzMii7Cx/61uOTCBDcSn6B\n7TOwvqdXRRbAyr8qDHpteKd1/MekUQowdfGGTbAk8QKBgQD3GATigwE6DAWRQZpC\nN2GpjDnmwQUPDXkhgcJJsx7lmMAya9G0nY0IbSFG79s2YelZaL+bD8usaqXxRxQq\nBzGnDaguvwd6sw7IXLGDnDu8/xaEePMiM1cOyzFV6GwJ6WVC7krbWMsps4C3KCQB\nssixPeJdCHvrpfCZr/dGc7Mt1wKBgQDJkMwqSQX5rz7nr+XJqiS3k1DjOJEz7Kob\n7SN7R9Wl5W/GjAJp+dRMpXyg1NkOsYVhH8H8+tllKMFYI7NCgabRvf/ea7nK6vDl\nVXhVXDOb7ku0ouoWuwRNY9rhPIEKL8LpIh4murJxU4RTZ4sy4kGcEC7ywkNtbgFf\nHzpZWwNp3wKBgDdLjrxJ6NpemlhZP/YVgqt4j/SNuV4W+8Z9zUbE6OMkfc5KxpEO\nuOLr2QiQ4JOY8alqgYZn0IJzE1OdPmvxVDE4Iyzi3v+cVnCMHcWADvZKd3WJw48h\nwhezbQT2kEbfjiOeQ+42PrDEVMeoGfavVa4kVSXQojqn1eHuuP1xIuXdAoGAPR/d\n6gzO9RLBvrzGsEsaa1kPNHiY/+gLBgD5u47jKTXUmZ8ntD+As+WTT6p8UEphKjzZ\nNQBVIKolR7c7yzVKA1zc1PRSGUj52HH81dXqCKVQ6+xjlJUODvHzFE6myxIEx3ID\nNrdzGY68GBbUTY/zWYJG2nMyw2KSo+fyZ9qDxH0CgYAnKFrpq63JUnMgDInwD7Ib\nULObs7YtHB+2Ur0Ou0Z60QVDGu4KPFkQuK8zNfsK4Z4DtNdGyzioH7j/gLXhi94p\noSD953Jrtn7mgbmZq0o1tZjYBI6d9N90LzbwGWQb6c8WSpHTKi3IgtEz8vf27zAY\nOI6UvRf2PtXN7CdGln7edQ==\n-----END PRIVATE KEY-----\n",
  "client_email": "airflow@iconic-being-134220.iam.gserviceaccount.com",
  "client_id": "114446713062385474708",
  "auth_uri": "https://accounts.google.com/o/oauth2/auth",
  "token_uri": "https://accounts.google.com/o/oauth2/token",
  "auth_provider_x509_cert_url": "https://www.googleapis.com/oauth2/v1/certs",
  "client_x509_cert_url": "https://www.googleapis.com/robot/v1/metadata/x509/airflow%40iconic-being-134220.iam.gserviceaccount.com"
}
