[
  {
    "type": "INTEGER",
    "name": "pid",
    "mode": "REQUIRED"
  },
  {
    "type": "INTEGER",
    "name": "eid",
    "mode": "REQUIRED"
  },
  {
    "type": "STRING",
    "name": "name",
    "mode": "NULLABLE"
  },
  {
    "type": "STRING",
    "name": "search_criteria",
    "mode": "NULLABLE"
  },
  {
    "type": "TIMESTAMP",
    "name": "created_at",
    "mode": "NULLABLE"
  },
  {
    "type": "TIMESTAMP",
    "name": "updated_at",
    "mode": "NULLABLE"
  },
  {
    "type": "TIMESTAMP",
    "name": "terminated_at",
    "mode": "NULLABLE"
  },
  {
    "type": "STRING",
    "name": "description",
    "mode": "NULLABLE"
  },
  {
    "type": "STRING",
    "name": "advanced_search_status",
    "mode": "NULLABLE"
  },
  {
    "type": "RECORD",
    "name": "employer",
    "mode": "NULLABLE",
    "fields": [
      {
        "type": "INTEGER",
        "name": "id",
        "mode": "NULLABLE"
      },
      {
        "type": "STRING",
        "name": "employer_name",
        "mode": "NULLABLE"
      },
      {
        "type": "TIMESTAMP",
        "name": "created_at",
        "mode": "NULLABLE"
      },
      {
        "type": "TIMESTAMP",
        "name": "updated_at",
        "mode": "NULLABLE"
      },
      {
        "type": "TIMESTAMP",
        "name": "wizard_completed_at",
        "mode": "NULLABLE"
      },
      {
        "type": "TIMESTAMP",
        "name": "hidden_at",
        "mode": "NULLABLE"
      },
      {
        "type": "INTEGER",
        "name": "brand_score",
        "mode": "NULLABLE"
      }
    ]
  }
]
