[
  {
    "type": "INTEGER",
    "name": "id",
    "mode": "REQUIRED"
  },
  {
    "type": "INTEGER",
    "name": "billing_account_id",
    "mode": "NULLABLE"
  },
  {
    "type": "STRING",
    "name": "internal_notes",
    "mode": "NULLABLE"
  },
  {
    "type": "STRING",
    "name": "description",
    "mode": "NULLABLE"
  },
  {
    "type": "INTEGER",
    "name": "amount_in_cents",
    "mode": "NULLABLE"
  },
  {
    "type": "INTEGER",
    "name": "amount_out_cents",
    "mode": "NULLABLE"
  },
  {
    "type": "STRING",
    "name": "currency",
    "mode": "NULLABLE"
  },
  {
    "type": "INTEGER",
    "name": "credits_in",
    "mode": "NULLABLE"
  },
  {
    "type": "INTEGER",
    "name": "credits_out",
    "mode": "NULLABLE"
  },
  {
    "type": "INTEGER",
    "name": "professional_profile_id",
    "mode": "NULLABLE"
  },
  {
    "type": "STRING",
    "name": "braintree_transaction_id",
    "mode": "NULLABLE"
  },
  {
    "type": "STRING",
    "name": "transaction_type",
    "mode": "NULLABLE"
  },
  {
    "type": "STRING",
    "name": "department",
    "mode": "NULLABLE"
  },
  {
    "type": "TIMESTAMP",
    "name": "created_at",
    "mode": "NULLABLE"
  },
  {
    "type": "TIMESTAMP",
    "name": "updated_at",
    "mode": "NULLABLE"
  },
  {
    "type": "INTEGER",
    "name": "created_by",
    "mode": "REQUIRED"
  },
  {
    "type": "INTEGER",
    "name": "subscription_statement_id",
    "mode": "NULLABLE"
  },
  {
    "type": "INTEGER",
    "name": "impersonator",
    "mode": "NULLABLE"
  }
]
