[
  {
    "type": "INTEGER",
    "name": "id",
    "mode": "REQUIRED"
  },
  {
    "type": "INTEGER",
    "name": "professional_profile_id",
    "mode": "REQUIRED"
  },
  {
    "type": "BOOLEAN",
    "name": "will_receive_unlock_alerts",
    "mode": "REQUIRED"
  },
  {
    "type": "BOOLEAN",
    "name": "will_receive_position_match_alerts",
    "mode": "REQUIRED"
  },
  {
    "type": "TIMESTAMP",
    "name": "created_at",
    "mode": "NULLABLE"
  },
  {
    "type": "TIMESTAMP",
    "name": "updated_at",
    "mode": "NULLABLE"
  },
  {
    "type": "BOOLEAN",
    "name": "will_receive_invitation_alerts",
    "mode": "REQUIRED"
  }
]
