[
  {
    "type": "INTEGER",
    "name": "id",
    "mode": "REQUIRED"
  },
  {
    "type": "INTEGER",
    "name": "assisted_search_survey_id",
    "mode": "REQUIRED"
  },
  {
    "type": "INTEGER",
    "name": "professional_profile_id",
    "mode": "REQUIRED"
  },
  {
    "type": "STRING",
    "name": "regret_comments",
    "mode": "NULLABLE"
  },
  {
    "type": "TIMESTAMP",
    "name": "created_at",
    "mode": "REQUIRED"
  },
  {
    "type": "TIMESTAMP",
    "name": "updated_at",
    "mode": "REQUIRED"
  },
  {
    "type": "INTEGER",
    "name": "assisted_search_survey_token_id",
    "mode": "REQUIRED"
  },
  {
    "type": "STRING",
    "name": "regret_reason",
    "mode": "NULLABLE"
  }
]
