[
  {
    "type": "INTEGER",
    "name": "id",
    "mode": "REQUIRED"
  },
  {
    "type": "INTEGER",
    "name": "company_profile_id",
    "mode": "NULLABLE"
  },
  {
    "type": "STRING",
    "name": "name",
    "mode": "NULLABLE"
  },
  {
    "type": "STRING",
    "name": "url",
    "mode": "NULLABLE"
  },
  {
    "type": "STRING",
    "name": "tagline",
    "mode": "NULLABLE"
  },
  {
    "type": "STRING",
    "name": "banner_image_large",
    "mode": "NULLABLE"
  },
  {
    "type": "STRING",
    "name": "banner_image_large_original_filename",
    "mode": "NULLABLE"
  },
  {
    "type": "TIMESTAMP",
    "name": "created_at",
    "mode": "NULLABLE"
  },
  {
    "type": "TIMESTAMP",
    "name": "updated_at",
    "mode": "NULLABLE"
  },
  {
    "type": "STRING",
    "name": "banner_image_small",
    "mode": "NULLABLE"
  },
  {
    "type": "STRING",
    "name": "banner_image_small_original_filename",
    "mode": "NULLABLE"
  },
  {
    "type": "STRING",
    "name": "banner_image_medium",
    "mode": "NULLABLE"
  },
  {
    "type": "STRING",
    "name": "banner_image_medium_original_filename",
    "mode": "NULLABLE"
  }
]
