[
  {
    "type": "INTEGER",
    "name": "id",
    "mode": "REQUIRED"
  },
  {
    "type": "STRING",
    "name": "wordpress_post_id",
    "mode": "REQUIRED"
  },
  {
    "type": "STRING",
    "name": "slug",
    "mode": "REQUIRED"
  },
  {
    "type": "BOOLEAN",
    "name": "jobseeker",
    "mode": "NULLABLE"
  },
  {
    "type": "BOOLEAN",
    "name": "employer",
    "mode": "NULLABLE"
  },
  {
    "type": "STRING",
    "name": "post_status",
    "mode": "NULLABLE"
  },
  {
    "type": "TIMESTAMP",
    "name": "publish_date",
    "mode": "NULLABLE"
  },
  {
    "type": "TIMESTAMP",
    "name": "created_at",
    "mode": "REQUIRED"
  },
  {
    "type": "TIMESTAMP",
    "name": "updated_at",
    "mode": "REQUIRED"
  }
]
