[
  {
    "type": "INTEGER",
    "name": "id",
    "mode": "REQUIRED"
  },
  {
    "type": "INTEGER",
    "name": "employer_id",
    "mode": "NULLABLE"
  },
  {
    "type": "STRING",
    "name": "postal_code",
    "mode": "NULLABLE"
  },
  {
    "type": "FLOAT",
    "name": "latitude",
    "mode": "NULLABLE"
  },
  {
    "type": "FLOAT",
    "name": "longitude",
    "mode": "NULLABLE"
  },
  {
    "type": "STRING",
    "name": "city",
    "mode": "NULLABLE"
  },
  {
    "type": "STRING",
    "name": "state",
    "mode": "NULLABLE"
  },
  {
    "type": "TIMESTAMP",
    "name": "created_at",
    "mode": "NULLABLE"
  },
  {
    "type": "TIMESTAMP",
    "name": "updated_at",
    "mode": "NULLABLE"
  },
  {
    "type": "STRING",
    "name": "area_name",
    "mode": "NULLABLE"
  }
]
