[
  {
    "type": "INTEGER",
    "name": "id",
    "mode": "REQUIRED"
  },
  {
    "type": "STRING",
    "name": "company1",
    "mode": "NULLABLE"
  },
  {
    "type": "INTEGER",
    "name": "duration1",
    "mode": "NULLABLE"
  },
  {
    "type": "STRING",
    "name": "company2",
    "mode": "NULLABLE"
  },
  {
    "type": "INTEGER",
    "name": "duration2",
    "mode": "NULLABLE"
  },
  {
    "type": "STRING",
    "name": "company3",
    "mode": "NULLABLE"
  },
  {
    "type": "INTEGER",
    "name": "duration3",
    "mode": "NULLABLE"
  },
  {
    "type": "INTEGER",
    "name": "professional_profile_id",
    "mode": "REQUIRED"
  },
  {
    "type": "TIMESTAMP",
    "name": "created_at",
    "mode": "NULLABLE"
  },
  {
    "type": "TIMESTAMP",
    "name": "updated_at",
    "mode": "NULLABLE"
  },
  {
    "type": "INTEGER",
    "name": "rank",
    "mode": "NULLABLE"
  },
  {
    "type": "STRING",
    "name": "description",
    "mode": "NULLABLE"
  }
]
