[
  {
    "type": "INTEGER",
    "name": "id",
    "mode": "REQUIRED"
  },
  {
    "type": "INTEGER",
    "name": "sector_id",
    "mode": "NULLABLE"
  },
  {
    "type": "STRING",
    "name": "key",
    "mode": "NULLABLE"
  },
  {
    "type": "STRING",
    "name": "display_name",
    "mode": "NULLABLE"
  },
  {
    "type": "INTEGER",
    "name": "position",
    "mode": "NULLABLE"
  }
]
