[
  {
    "type": "INTEGER",
    "name": "id",
    "mode": "REQUIRED"
  },
  {
    "type": "STRING",
    "name": "old_path",
    "mode": "NULLABLE"
  },
  {
    "type": "STRING",
    "name": "new_url",
    "mode": "NULLABLE"
  }
]
