[
  {
    "type": "INTEGER",
    "name": "id",
    "mode": "REQUIRED"
  },
  {
    "type": "STRING",
    "name": "token_digest",
    "mode": "NULLABLE"
  },
  {
    "type": "TIMESTAMP",
    "name": "retrieved_at",
    "mode": "NULLABLE"
  },
  {
    "type": "TIMESTAMP",
    "name": "created_at",
    "mode": "NULLABLE"
  },
  {
    "type": "TIMESTAMP",
    "name": "updated_at",
    "mode": "NULLABLE"
  }
]
