[
  {
    "type": "INTEGER",
    "name": "id",
    "mode": "REQUIRED"
  },
  {
    "type": "INTEGER",
    "name": "professional_profile_id",
    "mode": "REQUIRED"
  },
  {
    "type": "STRING",
    "name": "base_salary",
    "mode": "NULLABLE"
  },
  {
    "type": "STRING",
    "name": "hourly_rate",
    "mode": "NULLABLE"
  },
  {
    "type": "STRING",
    "name": "daily_travel_comp",
    "mode": "NULLABLE"
  },
  {
    "type": "STRING",
    "name": "other_concerns",
    "mode": "NULLABLE"
  },
  {
    "type": "TIMESTAMP",
    "name": "created_at",
    "mode": "NULLABLE"
  },
  {
    "type": "TIMESTAMP",
    "name": "updated_at",
    "mode": "NULLABLE"
  }
]
