[
  {
    "type": "INTEGER",
    "name": "id",
    "mode": "REQUIRED"
  },
  {
    "type": "INTEGER",
    "name": "professional_profile_id",
    "mode": "REQUIRED"
  },
  {
    "type": "INTEGER",
    "name": "user_id",
    "mode": "REQUIRED"
  },
  {
    "type": "INTEGER",
    "name": "position_id",
    "mode": "REQUIRED"
  },
  {
    "type": "INTEGER",
    "name": "impersonator",
    "mode": "NULLABLE"
  }
]
