[
  {
    "type": "INTEGER",
    "name": "id",
    "mode": "REQUIRED"
  },
  {
    "type": "STRING",
    "name": "braintree_subscription_id",
    "mode": "NULLABLE"
  },
  {
    "type": "INTEGER",
    "name": "billing_account_id",
    "mode": "REQUIRED"
  },
  {
    "type": "INTEGER",
    "name": "subscription_plan_id",
    "mode": "REQUIRED"
  },
  {
    "type": "INTEGER",
    "name": "billing_day_of_month",
    "mode": "NULLABLE"
  },
  {
    "type": "TIMESTAMP",
    "name": "last_checked_at",
    "mode": "NULLABLE"
  },
  {
    "type": "STRING",
    "name": "last_status",
    "mode": "NULLABLE"
  },
  {
    "type": "STRING",
    "name": "notes",
    "mode": "NULLABLE"
  },
  {
    "type": "TIMESTAMP",
    "name": "created_at",
    "mode": "NULLABLE"
  },
  {
    "type": "TIMESTAMP",
    "name": "updated_at",
    "mode": "NULLABLE"
  },
  {
    "type": "INTEGER",
    "name": "recurring_credits",
    "mode": "NULLABLE"
  },
  {
    "type": "INTEGER",
    "name": "price_cents",
    "mode": "NULLABLE"
  },
  {
    "type": "STRING",
    "name": "currency",
    "mode": "NULLABLE"
  },
  {
    "type": "INTEGER",
    "name": "recurring_credits_available",
    "mode": "NULLABLE"
  },
  {
    "type": "TIMESTAMP",
    "name": "canceled_at",
    "mode": "NULLABLE"
  },
  {
    "type": "INTEGER",
    "name": "purchased_by",
    "mode": "NULLABLE"
  },
  {
    "type": "BOOLEAN",
    "name": "reconcile_me",
    "mode": "NULLABLE"
  }
]
