[
  {
    "type": "INTEGER",
    "name": "id",
    "mode": "REQUIRED"
  },
  {
    "type": "STRING",
    "name": "name",
    "mode": "NULLABLE"
  },
  {
    "type": "STRING",
    "name": "original_context",
    "mode": "NULLABLE"
  },
  {
    "type": "INTEGER",
    "name": "taggings_count",
    "mode": "NULLABLE"
  }
]
