[
  {
    "type": "INTEGER",
    "name": "id",
    "mode": "REQUIRED"
  },
  {
    "type": "STRING",
    "name": "email",
    "mode": "REQUIRED"
  },
  {
    "type": "STRING",
    "name": "encrypted_password",
    "mode": "REQUIRED"
  },
  {
    "type": "STRING",
    "name": "reset_password_token",
    "mode": "NULLABLE"
  },
  {
    "type": "TIMESTAMP",
    "name": "reset_password_sent_at",
    "mode": "NULLABLE"
  },
  {
    "type": "TIMESTAMP",
    "name": "remember_created_at",
    "mode": "NULLABLE"
  },
  {
    "type": "INTEGER",
    "name": "sign_in_count",
    "mode": "REQUIRED"
  },
  {
    "type": "TIMESTAMP",
    "name": "current_sign_in_at",
    "mode": "NULLABLE"
  },
  {
    "type": "TIMESTAMP",
    "name": "last_sign_in_at",
    "mode": "NULLABLE"
  },
  {
    "type": "STRING",
    "name": "current_sign_in_ip",
    "mode": "NULLABLE"
  },
  {
    "type": "STRING",
    "name": "last_sign_in_ip",
    "mode": "NULLABLE"
  },
  {
    "type": "STRING",
    "name": "confirmation_token",
    "mode": "NULLABLE"
  },
  {
    "type": "TIMESTAMP",
    "name": "confirmed_at",
    "mode": "NULLABLE"
  },
  {
    "type": "TIMESTAMP",
    "name": "confirmation_sent_at",
    "mode": "NULLABLE"
  },
  {
    "type": "STRING",
    "name": "unconfirmed_email",
    "mode": "NULLABLE"
  },
  {
    "type": "TIMESTAMP",
    "name": "created_at",
    "mode": "NULLABLE"
  },
  {
    "type": "TIMESTAMP",
    "name": "updated_at",
    "mode": "NULLABLE"
  },
  {
    "type": "STRING",
    "name": "first_name",
    "mode": "REQUIRED"
  },
  {
    "type": "STRING",
    "name": "last_name",
    "mode": "REQUIRED"
  },
  {
    "type": "STRING",
    "name": "phone_number",
    "mode": "NULLABLE"
  },
  {
    "type": "STRING",
    "name": "provider",
    "mode": "NULLABLE"
  },
  {
    "type": "STRING",
    "name": "uid",
    "mode": "NULLABLE"
  },
  {
    "type": "STRING",
    "name": "invitation_token",
    "mode": "NULLABLE"
  },
  {
    "type": "TIMESTAMP",
    "name": "invitation_created_at",
    "mode": "NULLABLE"
  },
  {
    "type": "TIMESTAMP",
    "name": "invitation_sent_at",
    "mode": "NULLABLE"
  },
  {
    "type": "TIMESTAMP",
    "name": "invitation_accepted_at",
    "mode": "NULLABLE"
  },
  {
    "type": "INTEGER",
    "name": "invitation_limit",
    "mode": "NULLABLE"
  },
  {
    "type": "INTEGER",
    "name": "invited_by_id",
    "mode": "NULLABLE"
  },
  {
    "type": "STRING",
    "name": "invited_by_type",
    "mode": "NULLABLE"
  },
  {
    "type": "BOOLEAN",
    "name": "welcomed",
    "mode": "NULLABLE"
  },
  {
    "type": "BOOLEAN",
    "name": "will_receive_account_emails",
    "mode": "NULLABLE"
  },
  {
    "type": "TIMESTAMP",
    "name": "terminated_at",
    "mode": "NULLABLE"
  },
  {
    "type": "INTEGER",
    "name": "terminated_by",
    "mode": "NULLABLE"
  },
  {
    "type": "TIMESTAMP",
    "name": "last_activity_at",
    "mode": "NULLABLE"
  }
]
